{
  "version": "0.0.1",
  "captures": [
    {
      "id": "e8178c2f-d119-4c70-a465-a3e2ff5c5ffb",
      "sequence_id": "0e6c444f-9cb8-4806-8cba-fba818aab6e5",
      "step": 1043,
      "timestamp": 104.298981,
      "sensor": {
        "sensor_id": "485cc88d-2ab7-4eb1-8a1e-59e60d68d1ad",
        "ego_id": "00266a19-2a59-461b-b073-04232934b139",
        "modality": "camera",
        "translation": [
          0.0,
          0.0,
          0.0
        ],
        "rotation": [
          0.0,
          0.0,
          0.0,
          0.0
        ]
      },
      "ego": {
        "ego_id": "00266a19-2a59-461b-b073-04232934b139",
        "translation": [
          0.0,
          0.0,
          0.0
        ],
        "rotation": [
          0.0,
          0.0,
          0.0,
          0.0
        ],
        "velocity": null,
        "acceleration": null
      },
      "filename": null,
      "format": null,
      "annotations": [
        {
          "id": "17a04678-65a5-4e91-95fd-d8ae0a48b357",
          "annotation_definition": "12f94d8d-5425-4deb-9b21-5e53ad957d66",
          "filename": "SemanticSegmentation7930b56b-89e9-435f-91af-d28c85737afa/segmentation_1044.png"
        }
      ]
    },
    {
      "id": "2a09ce0a-bfdb-4822-a3c8-5c28729999fe",
      "sequence_id": "0e6c444f-9cb8-4806-8cba-fba818aab6e5",
      "step": 1044,
      "timestamp": 104.398979,
      "sensor": {
        "sensor_id": "cbb55c69-a5bd-4346-a4c4-d4e1b67b7e92",
        "ego_id": "62ca9225-3c41-4534-948f-bc0accc981f0",
        "modality": "camera",
        "translation": [
          0.0,
          0.0,
          0.0
        ],
        "rotation": [
          0.0,
          0.0,
          0.0,
          1.00000036
        ],
        "camera_intrinsic": [
          [
            1.299038,
            0.0,
            0.0
          ],
          [
            0.0,
            1.73205078,
            0.0
          ],
          [
            0.0,
            0.0,
            -1.0006001
          ]
        ]
      },
      "ego": {
        "ego_id": "62ca9225-3c41-4534-948f-bc0accc981f0",
        "translation": [
          229.389709,
          323.249939,
          359.508026
        ],
        "rotation": [
          0.119368128,
          0.0375723355,
          -0.008627913,
          0.99210155
        ],
        "velocity": null,
        "acceleration": null
      },
      "filename": "RGBa899674d-6fd7-433f-b5a9-1a5024f68a7d/rgb_1045.png",
      "format": "PNG",
      "annotations": [
        {
          "id": "c8d21ff7-f473-442b-81a8-185bf40db56a",
          "annotation_definition": "12f94d8d-5425-4deb-9b21-5e53ad957d66",
          "filename": "SemanticSegmentation560ca2b1-3129-4e14-af47-8dcc139aabc6/segmentation_1045.png"
        },
        {
          "id": "91cf2da3-d6b1-4f32-9df8-1352672d8bcd",
          "annotation_definition": "f9f22e05-443f-4602-a422-ebe4ea9b55cb",
          "values": []
        }
      ]
    },
    {
      "id": "707de324-5403-4edb-b17a-75f360000124",
      "sequence_id": "0e6c444f-9cb8-4806-8cba-fba818aab6e5",
      "step": 1045,
      "timestamp": 104.498978,
      "sensor": {
        "sensor_id": "485cc88d-2ab7-4eb1-8a1e-59e60d68d1ad",
        "ego_id": "00266a19-2a59-461b-b073-04232934b139",
        "modality": "camera",
        "translation": [
          0.0,
          0.0,
          0.0
        ],
        "rotation": [
          0.0,
          0.0,
          0.0,
          0.0
        ]
      },
      "ego": {
        "ego_id": "00266a19-2a59-461b-b073-04232934b139",
        "translation": [
          0.0,
          0.0,
          0.0
        ],
        "rotation": [
          0.0,
          0.0,
          0.0,
          0.0
        ],
        "velocity": null,
        "acceleration": null
      },
      "filename": null,
      "format": null,
      "annotations": [
        {
          "id": "adec90c5-365d-41b9-b8aa-0934c190c6d5",
          "annotation_definition": "12f94d8d-5425-4deb-9b21-5e53ad957d66",
          "filename": "SemanticSegmentation7930b56b-89e9-435f-91af-d28c85737afa/segmentation_1046.png"
        }
      ]
    },
    {
      "id": "e83ef22f-1b8b-449c-8024-0595dd5b9bcf",
      "sequence_id": "0e6c444f-9cb8-4806-8cba-fba818aab6e5",
      "step": 1046,
      "timestamp": 104.598976,
      "sensor": {
        "sensor_id": "cbb55c69-a5bd-4346-a4c4-d4e1b67b7e92",
        "ego_id": "62ca9225-3c41-4534-948f-bc0accc981f0",
        "modality": "camera",
        "translation": [
          0.0,
          0.0,
          0.0
        ],
        "rotation": [
          0.0,
          0.0,
          0.0,
          1.00000036
        ],
        "camera_intrinsic": [
          [
            1.299038,
            0.0,
            0.0
          ],
          [
            0.0,
            1.73205078,
            0.0
          ],
          [
            0.0,
            0.0,
            -1.0006001
          ]
        ]
      },
      "ego": {
        "ego_id": "62ca9225-3c41-4534-948f-bc0accc981f0",
        "translation": [
          229.443558,
          323.2583,
          361.719879
        ],
        "rotation": [
          0.120528184,
          -0.0236111712,
          -0.00838164,
          0.992393851
        ],
        "velocity": null,
        "acceleration": null
      },
      "filename": "RGBa899674d-6fd7-433f-b5a9-1a5024f68a7d/rgb_1047.png",
      "format": "PNG",
      "annotations": [
        {
          "id": "e666bf52-ddca-4aa9-b7c8-6a697211f9f4",
          "annotation_definition": "12f94d8d-5425-4deb-9b21-5e53ad957d66",
          "filename": "SemanticSegmentation560ca2b1-3129-4e14-af47-8dcc139aabc6/segmentation_1047.png"
        },
        {
          "id": "3034ba2c-e154-4b65-9554-42e29e915d9b",
          "annotation_definition": "f9f22e05-443f-4602-a422-ebe4ea9b55cb",
          "values": []
        }
      ]
    },
    {
      "id": "bf4a27a0-3277-4bf3-bb8c-0710c9419100",
      "sequence_id": "0e6c444f-9cb8-4806-8cba-fba818aab6e5",
      "step": 1047,
      "timestamp": 104.698975,
      "sensor": {
        "sensor_id": "485cc88d-2ab7-4eb1-8a1e-59e60d68d1ad",
        "ego_id": "00266a19-2a59-461b-b073-04232934b139",
        "modality": "camera",
        "translation": [
          0.0,
          0.0,
          0.0
        ],
        "rotation": [
          0.0,
          0.0,
          0.0,
          0.0
        ]
      },
      "ego": {
        "ego_id": "00266a19-2a59-461b-b073-04232934b139",
        "translation": [
          0.0,
          0.0,
          0.0
        ],
        "rotation": [
          0.0,
          0.0,
          0.0,
          0.0
        ],
        "velocity": null,
        "acceleration": null
      },
      "filename": null,
      "format": null,
      "annotations": [
        {
          "id": "b1de487c-6703-402f-b279-d9f66e34262a",
          "annotation_definition": "12f94d8d-5425-4deb-9b21-5e53ad957d66",
          "filename": "SemanticSegmentation7930b56b-89e9-435f-91af-d28c85737afa/segmentation_1048.png"
        }
      ]
    },
    {
      "id": "e440ae4f-f0a0-4316-8b03-1ba235821e5c",
      "sequence_id": "0e6c444f-9cb8-4806-8cba-fba818aab6e5",
      "step": 1048,
      "timestamp": 104.798973,
      "sensor": {
        "sensor_id": "cbb55c69-a5bd-4346-a4c4-d4e1b67b7e92",
        "ego_id": "62ca9225-3c41-4534-948f-bc0accc981f0",
        "modality": "camera",
        "translation": [
          0.0,
          0.0,
          0.0
        ],
        "rotation": [
          0.0,
          0.0,
          0.0,
          1.00000012
        ],
        "camera_intrinsic": [
          [
            1.299038,
            0.0,
            0.0
          ],
          [
            0.0,
            1.73205078,
            0.0
          ],
          [
            0.0,
            0.0,
            -1.0006001
          ]
        ]
      },
      "ego": {
        "ego_id": "62ca9225-3c41-4534-948f-bc0accc981f0",
        "translation": [
          229.138962,
          323.264862,
          363.834473
        ],
        "rotation": [
          0.123736233,
          -0.124232695,
          0.00164860394,
          0.9845065
        ],
        "velocity": null,
        "acceleration": null
      },
      "filename": "RGBa899674d-6fd7-433f-b5a9-1a5024f68a7d/rgb_1049.png",
      "format": "PNG",
      "annotations": [
        {
          "id": "97044c7b-e59b-41e8-bfcb-1ebbc6759179",
          "annotation_definition": "12f94d8d-5425-4deb-9b21-5e53ad957d66",
          "filename": "SemanticSegmentation560ca2b1-3129-4e14-af47-8dcc139aabc6/segmentation_1049.png"
        },
        {
          "id": "cd88e766-aaea-4864-b60e-17de88c38e55",
          "annotation_definition": "f9f22e05-443f-4602-a422-ebe4ea9b55cb",
          "values": []
        }
      ]
    },
    {
      "id": "4c101bdd-e609-4753-9a5d-0455afaf5718",
      "sequence_id": "0e6c444f-9cb8-4806-8cba-fba818aab6e5",
      "step": 1049,
      "timestamp": 104.898972,
      "sensor": {
        "sensor_id": "485cc88d-2ab7-4eb1-8a1e-59e60d68d1ad",
        "ego_id": "00266a19-2a59-461b-b073-04232934b139",
        "modality": "camera",
        "translation": [
          0.0,
          0.0,
          0.0
        ],
        "rotation": [
          0.0,
          0.0,
          0.0,
          0.0
        ]
      },
      "ego": {
        "ego_id": "00266a19-2a59-461b-b073-04232934b139",
        "translation": [
          0.0,
          0.0,
          0.0
        ],
        "rotation": [
          0.0,
          0.0,
          0.0,
          0.0
        ],
        "velocity": null,
        "acceleration": null
      },
      "filename": null,
      "format": null,
      "annotations": [
        {
          "id": "7f04747c-ed88-4e67-8470-9a2296b5a09c",
          "annotation_definition": "12f94d8d-5425-4deb-9b21-5e53ad957d66",
          "filename": "SemanticSegmentation7930b56b-89e9-435f-91af-d28c85737afa/segmentation_1050.png"
        }
      ]
    },
    {
      "id": "dd8ef707-1c5b-41a9-94c4-e351b780c524",
      "sequence_id": "0e6c444f-9cb8-4806-8cba-fba818aab6e5",
      "step": 1050,
      "timestamp": 104.99897,
      "sensor": {
        "sensor_id": "cbb55c69-a5bd-4346-a4c4-d4e1b67b7e92",
        "ego_id": "62ca9225-3c41-4534-948f-bc0accc981f0",
        "modality": "camera",
        "translation": [
          0.0,
          0.0,
          0.0
        ],
        "rotation": [
          0.0,
          0.0,
          0.0,
          1.00000024
        ],
        "camera_intrinsic": [
          [
            1.299038,
            0.0,
            0.0
          ],
          [
            0.0,
            1.73205078,
            0.0
          ],
          [
            0.0,
            0.0,
            -1.0006001
          ]
        ]
      },
      "ego": {
        "ego_id": "62ca9225-3c41-4534-948f-bc0accc981f0",
        "translation": [
          228.471039,
          323.264252,
          365.7517
        ],
        "rotation": [
          0.122840129,
          -0.231363684,
          0.0146126123,
          0.9649704
        ],
        "velocity": null,
        "acceleration": null
      },
      "filename": "RGBa899674d-6fd7-433f-b5a9-1a5024f68a7d/rgb_1051.png",
      "format": "PNG",
      "annotations": [
        {
          "id": "8c94c23f-145b-4c87-9408-93fdcc157d6d",
          "annotation_definition": "12f94d8d-5425-4deb-9b21-5e53ad957d66",
          "filename": "SemanticSegmentation560ca2b1-3129-4e14-af47-8dcc139aabc6/segmentation_1051.png"
        },
        {
          "id": "ac03e40b-c4bd-4a6e-b57d-4171ad3aa35e",
          "annotation_definition": "f9f22e05-443f-4602-a422-ebe4ea9b55cb",
          "values": []
        }
      ]
    },
    {
      "id": "3d55dbca-98e8-431a-97ab-81074aa4650d",
      "sequence_id": "0e6c444f-9cb8-4806-8cba-fba818aab6e5",
      "step": 1051,
      "timestamp": 105.098969,
      "sensor": {
        "sensor_id": "485cc88d-2ab7-4eb1-8a1e-59e60d68d1ad",
        "ego_id": "00266a19-2a59-461b-b073-04232934b139",
        "modality": "camera",
        "translation": [
          0.0,
          0.0,
          0.0
        ],
        "rotation": [
          0.0,
          0.0,
          0.0,
          0.0
        ]
      },
      "ego": {
        "ego_id": "00266a19-2a59-461b-b073-04232934b139",
        "translation": [
          0.0,
          0.0,
          0.0
        ],
        "rotation": [
          0.0,
          0.0,
          0.0,
          0.0
        ],
        "velocity": null,
        "acceleration": null
      },
      "filename": null,
      "format": null,
      "annotations": [
        {
          "id": "de19baca-cb9a-46a9-afd9-9f736a6d890b",
          "annotation_definition": "12f94d8d-5425-4deb-9b21-5e53ad957d66",
          "filename": "SemanticSegmentation7930b56b-89e9-435f-91af-d28c85737afa/segmentation_1052.png"
        }
      ]
    },
    {
      "id": "814e04ad-7082-4294-b4ef-0dc3977b6180",
      "sequence_id": "0e6c444f-9cb8-4806-8cba-fba818aab6e5",
      "step": 1052,
      "timestamp": 105.198967,
      "sensor": {
        "sensor_id": "cbb55c69-a5bd-4346-a4c4-d4e1b67b7e92",
        "ego_id": "62ca9225-3c41-4534-948f-bc0accc981f0",
        "modality": "camera",
        "translation": [
          0.0,
          0.0,
          0.0
        ],
        "rotation": [
          0.0,
          0.0,
          0.0,
          1.00000012
        ],
        "camera_intrinsic": [
          [
            1.299038,
            0.0,
            0.0
          ],
          [
            0.0,
            1.73205078,
            0.0
          ],
          [
            0.0,
            0.0,
            -1.0006001
          ]
        ]
      },
      "ego": {
        "ego_id": "62ca9225-3c41-4534-948f-bc0accc981f0",
        "translation": [
          227.489624,
          323.2642,
          367.4096
        ],
        "rotation": [
          0.120654307,
          -0.316648573,
          0.0265032426,
          0.940464735
        ],
        "velocity": null,
        "acceleration": null
      },
      "filename": "RGBa899674d-6fd7-433f-b5a9-1a5024f68a7d/rgb_1053.png",
      "format": "PNG",
      "annotations": [
        {
          "id": "c5af9327-cc05-4f9c-9f2d-6f5c7dc91cd9",
          "annotation_definition": "12f94d8d-5425-4deb-9b21-5e53ad957d66",
          "filename": "SemanticSegmentation560ca2b1-3129-4e14-af47-8dcc139aabc6/segmentation_1053.png"
        },
        {
          "id": "438256b2-da42-43fe-973d-179f01396d73",
          "annotation_definition": "f9f22e05-443f-4602-a422-ebe4ea9b55cb",
          "values": []
        }
      ]
    },
    {
      "id": "02ccc2b7-11a8-466b-87e1-05cd6ea84c99",
      "sequence_id": "0e6c444f-9cb8-4806-8cba-fba818aab6e5",
      "step": 1053,
      "timestamp": 105.298965,
      "sensor": {
        "sensor_id": "485cc88d-2ab7-4eb1-8a1e-59e60d68d1ad",
        "ego_id": "00266a19-2a59-461b-b073-04232934b139",
        "modality": "camera",
        "translation": [
          0.0,
          0.0,
          0.0
        ],
        "rotation": [
          0.0,
          0.0,
          0.0,
          0.0
        ]
      },
      "ego": {
        "ego_id": "00266a19-2a59-461b-b073-04232934b139",
        "translation": [
          0.0,
          0.0,
          0.0
        ],
        "rotation": [
          0.0,
          0.0,
          0.0,
          0.0
        ],
        "velocity": null,
        "acceleration": null
      },
      "filename": null,
      "format": null,
      "annotations": [
        {
          "id": "1991c738-9638-47f2-8be3-7a6748a003c1",
          "annotation_definition": "12f94d8d-5425-4deb-9b21-5e53ad957d66",
          "filename": "SemanticSegmentation7930b56b-89e9-435f-91af-d28c85737afa/segmentation_1054.png"
        }
      ]
    },
    {
      "id": "73b650f3-f465-45f8-83a4-cb6ab43fba03",
      "sequence_id": "0e6c444f-9cb8-4806-8cba-fba818aab6e5",
      "step": 1054,
      "timestamp": 105.398964,
      "sensor": {
        "sensor_id": "cbb55c69-a5bd-4346-a4c4-d4e1b67b7e92",
        "ego_id": "62ca9225-3c41-4534-948f-bc0accc981f0",
        "modality": "camera",
        "translation": [
          0.0,
          0.0,
          0.0
        ],
        "rotation": [
          0.0,
          0.0,
          0.0,
          1.00000012
        ],
        "camera_intrinsic": [
          [
            1.299038,
            0.0,
            0.0
          ],
          [
            0.0,
            1.73205078,
            0.0
          ],
          [
            0.0,
            0.0,
            -1.0006001
          ]
        ]
      },
      "ego": {
        "ego_id": "62ca9225-3c41-4534-948f-bc0accc981f0",
        "translation": [
          226.272461,
          323.26413,
          368.776978
        ],
        "rotation": [
          0.117498651,
          -0.388914078,
          0.0373385,
          0.912987351
        ],
        "velocity": null,
        "acceleration": null
      },
      "filename": "RGBa899674d-6fd7-433f-b5a9-1a5024f68a7d/rgb_1055.png",
      "format": "PNG",
      "annotations": [
        {
          "id": "5ed81f6a-e40a-406f-881f-ec4750c0fdc3",
          "annotation_definition": "12f94d8d-5425-4deb-9b21-5e53ad957d66",
          "filename": "SemanticSegmentation560ca2b1-3129-4e14-af47-8dcc139aabc6/segmentation_1055.png"
        },
        {
          "id": "f572e5c7-a7ae-45e9-bffc-42887b48af74",
          "annotation_definition": "f9f22e05-443f-4602-a422-ebe4ea9b55cb",
          "values": []
        }
      ]
    },
    {
      "id": "81745cc6-a2ae-4cce-bc71-9ef59504df5c",
      "sequence_id": "0e6c444f-9cb8-4806-8cba-fba818aab6e5",
      "step": 1055,
      "timestamp": 105.498962,
      "sensor": {
        "sensor_id": "485cc88d-2ab7-4eb1-8a1e-59e60d68d1ad",
        "ego_id": "00266a19-2a59-461b-b073-04232934b139",
        "modality": "camera",
        "translation": [
          0.0,
          0.0,
          0.0
        ],
        "rotation": [
          0.0,
          0.0,
          0.0,
          0.0
        ]
      },
      "ego": {
        "ego_id": "00266a19-2a59-461b-b073-04232934b139",
        "translation": [
          0.0,
          0.0,
          0.0
        ],
        "rotation": [
          0.0,
          0.0,
          0.0,
          0.0
        ],
        "velocity": null,
        "acceleration": null
      },
      "filename": null,
      "format": null,
      "annotations": [
        {
          "id": "34609688-29e3-4be1-be9e-d794d7687b35",
          "annotation_definition": "12f94d8d-5425-4deb-9b21-5e53ad957d66",
          "filename": "SemanticSegmentation7930b56b-89e9-435f-91af-d28c85737afa/segmentation_1056.png"
        }
      ]
    },
    {
      "id": "25952f94-9b38-43a9-909a-6328ba30f2e2",
      "sequence_id": "0e6c444f-9cb8-4806-8cba-fba818aab6e5",
      "step": 1056,
      "timestamp": 105.598961,
      "sensor": {
        "sensor_id": "cbb55c69-a5bd-4346-a4c4-d4e1b67b7e92",
        "ego_id": "62ca9225-3c41-4534-948f-bc0accc981f0",
        "modality": "camera",
        "translation": [
          0.0,
          0.0,
          0.0
        ],
        "rotation": [
          0.0,
          0.0,
          0.0,
          1.0
        ],
        "camera_intrinsic": [
          [
            1.299038,
            0.0,
            0.0
          ],
          [
            0.0,
            1.73205078,
            0.0
          ],
          [
            0.0,
            0.0,
            -1.0006001
          ]
        ]
      },
      "ego": {
        "ego_id": "62ca9225-3c41-4534-948f-bc0accc981f0",
        "translation": [
          224.904129,
          323.257,
          369.908325
        ],
        "rotation": [
          0.124238037,
          -0.464921921,
          0.03954921,
          0.8756988
        ],
        "velocity": null,
        "acceleration": null
      },
      "filename": "RGBa899674d-6fd7-433f-b5a9-1a5024f68a7d/rgb_1057.png",
      "format": "PNG",
      "annotations": [
        {
          "id": "270e2552-ebca-48bc-82ff-11a52a2015e2",
          "annotation_definition": "12f94d8d-5425-4deb-9b21-5e53ad957d66",
          "filename": "SemanticSegmentation560ca2b1-3129-4e14-af47-8dcc139aabc6/segmentation_1057.png"
        },
        {
          "id": "a0e6e70b-4419-4973-9c44-742449c3f9d9",
          "annotation_definition": "f9f22e05-443f-4602-a422-ebe4ea9b55cb",
          "values": []
        }
      ]
    },
    {
      "id": "cdc535d0-1253-4414-b4bc-918ca3024b27",
      "sequence_id": "0e6c444f-9cb8-4806-8cba-fba818aab6e5",
      "step": 1057,
      "timestamp": 105.698959,
      "sensor": {
        "sensor_id": "485cc88d-2ab7-4eb1-8a1e-59e60d68d1ad",
        "ego_id": "00266a19-2a59-461b-b073-04232934b139",
        "modality": "camera",
        "translation": [
          0.0,
          0.0,
          0.0
        ],
        "rotation": [
          0.0,
          0.0,
          0.0,
          0.0
        ]
      },
      "ego": {
        "ego_id": "00266a19-2a59-461b-b073-04232934b139",
        "translation": [
          0.0,
          0.0,
          0.0
        ],
        "rotation": [
          0.0,
          0.0,
          0.0,
          0.0
        ],
        "velocity": null,
        "acceleration": null
      },
      "filename": null,
      "format": null,
      "annotations": [
        {
          "id": "3c446b0e-58a6-4b2f-82e3-20be4a339a7a",
          "annotation_definition": "12f94d8d-5425-4deb-9b21-5e53ad957d66",
          "filename": "SemanticSegmentation7930b56b-89e9-435f-91af-d28c85737afa/segmentation_1058.png"
        }
      ]
    },
    {
      "id": "61ba3167-c523-429b-9209-8dfd6d9f403f",
      "sequence_id": "0e6c444f-9cb8-4806-8cba-fba818aab6e5",
      "step": 1058,
      "timestamp": 105.798958,
      "sensor": {
        "sensor_id": "cbb55c69-a5bd-4346-a4c4-d4e1b67b7e92",
        "ego_id": "62ca9225-3c41-4534-948f-bc0accc981f0",
        "modality": "camera",
        "translation": [
          0.0,
          0.0,
          0.0
        ],
        "rotation": [
          0.0,
          0.0,
          0.0,
          1.00000024
        ],
        "camera_intrinsic": [
          [
            1.299038,
            0.0,
            0.0
          ],
          [
            0.0,
            1.73205078,
            0.0
          ],
          [
            0.0,
            0.0,
            -1.0006001
          ]
        ]
      },
      "ego": {
        "ego_id": "62ca9225-3c41-4534-948f-bc0accc981f0",
        "translation": [
          223.427322,
          323.238,
          370.650543
        ],
        "rotation": [
          0.112944692,
          -0.5479981,
          0.0605446,
          0.82660526
        ],
        "velocity": null,
        "acceleration": null
      },
      "filename": "RGBa899674d-6fd7-433f-b5a9-1a5024f68a7d/rgb_1059.png",
      "format": "PNG",
      "annotations": [
        {
          "id": "1170887a-b360-4721-8f5b-85d9033cd00e",
          "annotation_definition": "12f94d8d-5425-4deb-9b21-5e53ad957d66",
          "filename": "SemanticSegmentation560ca2b1-3129-4e14-af47-8dcc139aabc6/segmentation_1059.png"
        },
        {
          "id": "a2f81799-36a8-46d8-8e81-6fa22a615789",
          "annotation_definition": "f9f22e05-443f-4602-a422-ebe4ea9b55cb",
          "values": []
        }
      ]
    },
    {
      "id": "bf5b35ff-71db-4a0e-9d73-609976210b82",
      "sequence_id": "0e6c444f-9cb8-4806-8cba-fba818aab6e5",
      "step": 1059,
      "timestamp": 105.898956,
      "sensor": {
        "sensor_id": "485cc88d-2ab7-4eb1-8a1e-59e60d68d1ad",
        "ego_id": "00266a19-2a59-461b-b073-04232934b139",
        "modality": "camera",
        "translation": [
          0.0,
          0.0,
          0.0
        ],
        "rotation": [
          0.0,
          0.0,
          0.0,
          0.0
        ]
      },
      "ego": {
        "ego_id": "00266a19-2a59-461b-b073-04232934b139",
        "translation": [
          0.0,
          0.0,
          0.0
        ],
        "rotation": [
          0.0,
          0.0,
          0.0,
          0.0
        ],
        "velocity": null,
        "acceleration": null
      },
      "filename": null,
      "format": null,
      "annotations": [
        {
          "id": "888b6408-ca66-4c1a-b973-3a3a6626fe56",
          "annotation_definition": "12f94d8d-5425-4deb-9b21-5e53ad957d66",
          "filename": "SemanticSegmentation7930b56b-89e9-435f-91af-d28c85737afa/segmentation_1060.png"
        }
      ]
    },
    {
      "id": "b1086413-565a-40fd-a9d9-ce5f738fe2cf",
      "sequence_id": "0e6c444f-9cb8-4806-8cba-fba818aab6e5",
      "step": 1060,
      "timestamp": 105.998955,
      "sensor": {
        "sensor_id": "cbb55c69-a5bd-4346-a4c4-d4e1b67b7e92",
        "ego_id": "62ca9225-3c41-4534-948f-bc0accc981f0",
        "modality": "camera",
        "translation": [
          0.0,
          0.0,
          0.0
        ],
        "rotation": [
          0.0,
          0.0,
          0.0,
          1.00000012
        ],
        "camera_intrinsic": [
          [
            1.299038,
            0.0,
            0.0
          ],
          [
            0.0,
            1.73205078,
            0.0
          ],
          [
            0.0,
            0.0,
            -1.0006001
          ]
        ]
      },
      "ego": {
        "ego_id": "62ca9225-3c41-4534-948f-bc0accc981f0",
        "translation": [
          221.952209,
          323.224182,
          371.143066
        ],
        "rotation": [
          0.11575067,
          -0.608926058,
          0.06464158,
          0.7820693
        ],
        "velocity": null,
        "acceleration": null
      },
      "filename": "RGBa899674d-6fd7-433f-b5a9-1a5024f68a7d/rgb_1061.png",
      "format": "PNG",
      "annotations": [
        {
          "id": "dfcdc0c4-5acd-4049-83c5-89abdb1ac1db",
          "annotation_definition": "12f94d8d-5425-4deb-9b21-5e53ad957d66",
          "filename": "SemanticSegmentation560ca2b1-3129-4e14-af47-8dcc139aabc6/segmentation_1061.png"
        },
        {
          "id": "27728bcc-5738-46bc-af0f-e020eb3c4d26",
          "annotation_definition": "f9f22e05-443f-4602-a422-ebe4ea9b55cb",
          "values": []
        }
      ]
    },
    {
      "id": "c80c2f51-b81c-48a0-afe6-a688d08403d8",
      "sequence_id": "0e6c444f-9cb8-4806-8cba-fba818aab6e5",
      "step": 1061,
      "timestamp": 106.098953,
      "sensor": {
        "sensor_id": "485cc88d-2ab7-4eb1-8a1e-59e60d68d1ad",
        "ego_id": "00266a19-2a59-461b-b073-04232934b139",
        "modality": "camera",
        "translation": [
          0.0,
          0.0,
          0.0
        ],
        "rotation": [
          0.0,
          0.0,
          0.0,
          0.0
        ]
      },
      "ego": {
        "ego_id": "00266a19-2a59-461b-b073-04232934b139",
        "translation": [
          0.0,
          0.0,
          0.0
        ],
        "rotation": [
          0.0,
          0.0,
          0.0,
          0.0
        ],
        "velocity": null,
        "acceleration": null
      },
      "filename": null,
      "format": null,
      "annotations": [
        {
          "id": "1e1d526a-faef-40c4-843f-d978a8f27c24",
          "annotation_definition": "12f94d8d-5425-4deb-9b21-5e53ad957d66",
          "filename": "SemanticSegmentation7930b56b-89e9-435f-91af-d28c85737afa/segmentation_1062.png"
        }
      ]
    },
    {
      "id": "05bcc768-723c-45fb-b82a-2d803eaf4dad",
      "sequence_id": "0e6c444f-9cb8-4806-8cba-fba818aab6e5",
      "step": 1062,
      "timestamp": 106.198952,
      "sensor": {
        "sensor_id": "cbb55c69-a5bd-4346-a4c4-d4e1b67b7e92",
        "ego_id": "62ca9225-3c41-4534-948f-bc0accc981f0",
        "modality": "camera",
        "translation": [
          0.0,
          0.0,
          0.0
        ],
        "rotation": [
          0.0,
          0.0,
          0.0,
          1.00000024
        ],
        "camera_intrinsic": [
          [
            1.299038,
            0.0,
            0.0
          ],
          [
            0.0,
            1.73205078,
            0.0
          ],
          [
            0.0,
            0.0,
            -1.0006001
          ]
        ]
      },
      "ego": {
        "ego_id": "62ca9225-3c41-4534-948f-bc0accc981f0",
        "translation": [
          220.5379,
          323.2035,
          371.265717
        ],
        "rotation": [
          0.09927652,
          -0.6687104,
          0.0769969,
          0.732831657
        ],
        "velocity": null,
        "acceleration": null
      },
      "filename": "RGBa899674d-6fd7-433f-b5a9-1a5024f68a7d/rgb_1063.png",
      "format": "PNG",
      "annotations": [
        {
          "id": "9c4c7536-858f-44b2-91e6-2817f1ac620c",
          "annotation_definition": "12f94d8d-5425-4deb-9b21-5e53ad957d66",
          "filename": "SemanticSegmentation560ca2b1-3129-4e14-af47-8dcc139aabc6/segmentation_1063.png"
        },
        {
          "id": "e7d15600-9a24-4535-9446-d4b496f2693e",
          "annotation_definition": "f9f22e05-443f-4602-a422-ebe4ea9b55cb",
          "values": []
        }
      ]
    },
    {
      "id": "f3966b26-1bf5-4a9a-821d-f65522f5d11d",
      "sequence_id": "0e6c444f-9cb8-4806-8cba-fba818aab6e5",
      "step": 1063,
      "timestamp": 106.29895,
      "sensor": {
        "sensor_id": "485cc88d-2ab7-4eb1-8a1e-59e60d68d1ad",
        "ego_id": "00266a19-2a59-461b-b073-04232934b139",
        "modality": "camera",
        "translation": [
          0.0,
          0.0,
          0.0
        ],
        "rotation": [
          0.0,
          0.0,
          0.0,
          0.0
        ]
      },
      "ego": {
        "ego_id": "00266a19-2a59-461b-b073-04232934b139",
        "translation": [
          0.0,
          0.0,
          0.0
        ],
        "rotation": [
          0.0,
          0.0,
          0.0,
          0.0
        ],
        "velocity": null,
        "acceleration": null
      },
      "filename": null,
      "format": null,
      "annotations": [
        {
          "id": "8e2856df-cdcf-46cf-b133-0ae05b7a888e",
          "annotation_definition": "12f94d8d-5425-4deb-9b21-5e53ad957d66",
          "filename": "SemanticSegmentation7930b56b-89e9-435f-91af-d28c85737afa/segmentation_1064.png"
        }
      ]
    },
    {
      "id": "01f34c9a-78eb-407a-92d4-519be78bd809",
      "sequence_id": "0e6c444f-9cb8-4806-8cba-fba818aab6e5",
      "step": 1064,
      "timestamp": 106.398949,
      "sensor": {
        "sensor_id": "cbb55c69-a5bd-4346-a4c4-d4e1b67b7e92",
        "ego_id": "62ca9225-3c41-4534-948f-bc0accc981f0",
        "modality": "camera",
        "translation": [
          0.0,
          0.0,
          0.0
        ],
        "rotation": [
          0.0,
          0.0,
          0.0,
          1.00000024
        ],
        "camera_intrinsic": [
          [
            1.299038,
            0.0,
            0.0
          ],
          [
            0.0,
            1.73205078,
            0.0
          ],
          [
            0.0,
            0.0,
            -1.0006001
          ]
        ]
      },
      "ego": {
        "ego_id": "62ca9225-3c41-4534-948f-bc0accc981f0",
        "translation": [
          219.205276,
          323.205353,
          371.128326
        ],
        "rotation": [
          0.08794709,
          -0.737038255,
          0.08187179,
          0.665084362
        ],
        "velocity": null,
        "acceleration": null
      },
      "filename": "RGBa899674d-6fd7-433f-b5a9-1a5024f68a7d/rgb_1065.png",
      "format": "PNG",
      "annotations": [
        {
          "id": "128e7f28-7cc2-4159-9db9-a2538999f646",
          "annotation_definition": "12f94d8d-5425-4deb-9b21-5e53ad957d66",
          "filename": "SemanticSegmentation560ca2b1-3129-4e14-af47-8dcc139aabc6/segmentation_1065.png"
        },
        {
          "id": "36e212bb-7633-440a-9c14-ee5b84ffac1a",
          "annotation_definition": "f9f22e05-443f-4602-a422-ebe4ea9b55cb",
          "values": []
        }
      ]
    },
    {
      "id": "f1a92a08-7577-4163-abdf-138f0e401825",
      "sequence_id": "0e6c444f-9cb8-4806-8cba-fba818aab6e5",
      "step": 1065,
      "timestamp": 106.498947,
      "sensor": {
        "sensor_id": "485cc88d-2ab7-4eb1-8a1e-59e60d68d1ad",
        "ego_id": "00266a19-2a59-461b-b073-04232934b139",
        "modality": "camera",
        "translation": [
          0.0,
          0.0,
          0.0
        ],
        "rotation": [
          0.0,
          0.0,
          0.0,
          0.0
        ]
      },
      "ego": {
        "ego_id": "00266a19-2a59-461b-b073-04232934b139",
        "translation": [
          0.0,
          0.0,
          0.0
        ],
        "rotation": [
          0.0,
          0.0,
          0.0,
          0.0
        ],
        "velocity": null,
        "acceleration": null
      },
      "filename": null,
      "format": null,
      "annotations": [
        {
          "id": "040751fd-ac2f-4c9e-b954-e7818dabd882",
          "annotation_definition": "12f94d8d-5425-4deb-9b21-5e53ad957d66",
          "filename": "SemanticSegmentation7930b56b-89e9-435f-91af-d28c85737afa/segmentation_1066.png"
        }
      ]
    },
    {
      "id": "ca3a0f70-a897-410e-85fe-dce09c6c9717",
      "sequence_id": "0e6c444f-9cb8-4806-8cba-fba818aab6e5",
      "step": 1066,
      "timestamp": 106.598946,
      "sensor": {
        "sensor_id": "cbb55c69-a5bd-4346-a4c4-d4e1b67b7e92",
        "ego_id": "62ca9225-3c41-4534-948f-bc0accc981f0",
        "modality": "camera",
        "translation": [
          0.0,
          0.0,
          0.0
        ],
        "rotation": [
          0.0,
          0.0,
          0.0,
          1.00000036
        ],
        "camera_intrinsic": [
          [
            1.299038,
            0.0,
            0.0
          ],
          [
            0.0,
            1.73205078,
            0.0
          ],
          [
            0.0,
            0.0,
            -1.0006001
          ]
        ]
      },
      "ego": {
        "ego_id": "62ca9225-3c41-4534-948f-bc0accc981f0",
        "translation": [
          217.991257,
          323.229675,
          370.7625
        ],
        "rotation": [
          0.0872440562,
          -0.819114745,
          0.082032904,
          0.5609906
        ],
        "velocity": null,
        "acceleration": null
      },
      "filename": "RGBa899674d-6fd7-433f-b5a9-1a5024f68a7d/rgb_1067.png",
      "format": "PNG",
      "annotations": [
        {
          "id": "9af7b682-27d4-459b-8e1b-35628211df5b",
          "annotation_definition": "12f94d8d-5425-4deb-9b21-5e53ad957d66",
          "filename": "SemanticSegmentation560ca2b1-3129-4e14-af47-8dcc139aabc6/segmentation_1067.png"
        },
        {
          "id": "ae2fa30e-8e56-4e0a-ba7a-196683d5000b",
          "annotation_definition": "f9f22e05-443f-4602-a422-ebe4ea9b55cb",
          "values": []
        }
      ]
    },
    {
      "id": "6b10e8e2-0f8f-45e6-b56f-2a9de5bf6f83",
      "sequence_id": "0e6c444f-9cb8-4806-8cba-fba818aab6e5",
      "step": 1067,
      "timestamp": 106.698944,
      "sensor": {
        "sensor_id": "485cc88d-2ab7-4eb1-8a1e-59e60d68d1ad",
        "ego_id": "00266a19-2a59-461b-b073-04232934b139",
        "modality": "camera",
        "translation": [
          0.0,
          0.0,
          0.0
        ],
        "rotation": [
          0.0,
          0.0,
          0.0,
          0.0
        ]
      },
      "ego": {
        "ego_id": "00266a19-2a59-461b-b073-04232934b139",
        "translation": [
          0.0,
          0.0,
          0.0
        ],
        "rotation": [
          0.0,
          0.0,
          0.0,
          0.0
        ],
        "velocity": null,
        "acceleration": null
      },
      "filename": null,
      "format": null,
      "annotations": [
        {
          "id": "e069980c-b671-4e45-bf4b-cbda692a1232",
          "annotation_definition": "12f94d8d-5425-4deb-9b21-5e53ad957d66",
          "filename": "SemanticSegmentation7930b56b-89e9-435f-91af-d28c85737afa/segmentation_1068.png"
        }
      ]
    }
  ]
}