{
  "version": "0.0.1",
  "egos": [
    {
      "id": "60815d70-927f-4df6-9b9d-3e7b4f66cdb6",
      "description": ""
    },
    {
      "id": "37c1eb8a-bab7-4ae0-84a3-5e9d6c68e606",
      "description": ""
    }
  ]
}